1597
1607
1627
1634
1643
1645
1649
1659
1663
1665
1667
1668
1671
1677
1679
1681
1692
1693
1694
1695
1698
1700
1709
1710
1711
1719
1720
1723
1730
1731
1732
1733
1736
1737
1740
1741
1744
1750
1751
1753
1755
1757
1763
1764
1765
1767
1769
1770
1772
1774
1776
1777
1778
1779
1780
1781
1783
1784
1785
1787
1789
1791
1793
1794
1795
1796
1797
1798
1799
1801
1802
1803
1804
1805
1806
1807
1808
1809
1810
1811
1812
1813
1814
1815
1817
1820
1824
1826
1827
1828
1831
1832
1835
2418
2431
2443
2456
2461
2462
2468
2472
2481
2484
2494
2498
2500
2501
2505
2516
2517
2518
2532
2541
2542
2550
2554
2563
2565
2568
2569
2571
2574
2575
2576
2577
2579
2582
2584
2588
2590
2591
2595
2596
2601
2602
2607
2608
2611
2612
2613
2614
2615
2616
2617
2618
2619
2620
2621
2622
2623
2624
2625
2626
2627
2628
2629
2631
2632
2633
2637
2638
2639
2640
2641
2642
2643
2644
2645
2646
2647
2648
2649
2650
2651
2654
2655
2657
2659
2660
2661
2663
2668
2670
2671
2672
2674
2677
2678
2682
2683
2684
2686
2687
2690
2691
2692
2694
2696
2698
2700
2701
2702
2704
2707
2708
2709
2711
2712
2713
2716
2720
2721
2723
2725
2726
2727
2728
2730
2731
2732
2733
2734
2735
2736
2737
2738
2739
2740
2742
2743
2745
2749
2751
2754
2759
2761
2762
2763
2765
2767
2769
2771
2772
2774
2777
2778
2780
2785
2786
2787
2789
2801
2804
2805
2809
2813
2815
2816
2819
2821
3666
3674
3692
3707
3722
3746
3749
3752
3759
3767
3769
3770
3775
3778
3796
3802
3803
3806
3807
3809
3814
3819
3823
3829
3832
3835
3843
3845
3852
3859
3860
3865
3867
3868
3871
3875
3883
3886
3889
3896
3899
3903
3907
3910
3911
3913
3914
3921
3922
3923
3926
3932
3933
3936
3939
3942
3945
3946
3954
3955
3958
3960
3963
3966
3967
3968
3969
3970
3971
3972
3973
3975
3978
3979
3980
3981
3982
3983
3984
3985
3986
3987
3988
3989
3990
3991
3992
3993
3994
3995
3996
3997
3998
3999
4000
4001
4002
4003
4004
4005
4006
4007
4008
4009
4010
4011
4012
4013
4014
4015
4016
4017
4018
4019
4020
4021
4022
4023
4024
4025
4026
4027
4028
4029
4030
4031
4032
4033
4034
4035
4036
4037
4038
4039
4040
4041
4042
4043
4044
4045
4046
4047
4048
4049
4050
4051
4052
4053
4054
4055
4056
4057
4058
4059
4060
4061
4062
4063
4064
4065
4066
4067
4068
4069
4070
4071
4072
4073
4074
4075
4076
4077
4078
4079
4080
4081
4082
4083
4084
4085
4086
4087
4088
4089
4090
4091
4092
4093
4094
4095
4096
4097
4098
4099
4100
4101
4102
4103
4104
4105
4106
4107
4108
4109
4110
4111
4112
4113
4114
4115
4116
4117
4118
4119
4120
4121
4122
4123
4124
4125
4126
4127
4128
4129
4130
4131
4132
4133
4134
4135
4136
4137
4138
4139
4140
4141
4142
4143
4144
4145
4146
4147
4148
4149
4150
4151
4152
4153
4154
4155
4156
4157
4158
4159
4160
4161
4162
4163
4164
4165
4166
4167
4168
4169
4170
4171
4172
4173
4174
4175
4176
4177
4178
4179
4180
4181
4182
4183
4184
4185
4186
4187
4188
4189
4190
4191
4192
4193
4194
4195
4196
4197
4198
4199
4200
4201
4202
4203
4204
4205
4206
4207
4208
4209
4210
4211
4212
4213
4214
4215
4216
4217
4218
4219
4220
4221
4222
4223
4224
4225
4226
4227
4228
4229
4230
4231
4232
4233
4234
4235
4236
4237
4238
4239
4240
4241
4242
4243
4244
4245
4247
4248
4249
4250
4251
4252
4253
4254
4255
4257
4258
4259
4260
4261
4262
4263
4264
4265
4266
4267
4268
4269
4270
4271
4272
4273
4274
4275
4276
4277
4278
4279
4280
4281
4283
4284
4285
4286
4287
4288
4289
4290
4291
4292
4293
4294
4295
4296
4297
4298
4299
4300
4301
4302
4303
4304
4305
4306
4307
4308
4309
4310
4311
4312
4313
4314
4316
4317
4318
4319
4320
4321
4322
4323
4324
4325
4326
4327
4328
4329
4330
4331
4332
4333
4334
4335
4336
4337
4338
4339
4340
4341
4342
4343
4344
4345
4346
4347
4348
4349
4351
4352
4353
4354
4355
4357
4358
4359
4360
4361
4362
4364
4365
4366
4367
4368
4369
4370
4371
4372
4373
4374
4375
4376
4377
4378
4379
4380
4381
4382
4383
4386
4387
4388
4389
4390
4391
4392
4393
4394
4395
4398
4399
4400
4404
4405
4406
4407
4409
4410
4413
4414
4416
4417
4418
4419
4420
4422
4423
4424
4425
4426
4427
4430
4431
4434
4438
4441
5936
6030
6047
6110
6134
6143
6147
6148
6151
6152
6154
6169
6172
6175
6180
6190
6193
6195
6198
6200
6209
6221
6222
6223
6225
6226
6227
6229
6233
6234
6236
6238
6239
6242
6243
6246
6251
6253
6255
6260
6261
6265
6269
6273
6276
6277
6280
6283
6284
6286
6287
6289
6290
6291
6292
6294
6295
6296
6297
6298
6299
6300
6301
6302
6303
6304
6305
6306
6307
6308
6309
6310
6311
6312
6313
6314
6315
6316
6317
6318
6319
6320
6321
6322
6323
6324
6325
6326
6327
6328
6329
6330
6331
6332
6333
6334
6335
6336
6337
6338
6339
6340
6341
6342
6343
6344
6345
6346
6347
6348
6349
6350
6351
6352
6353
6354
6355
6356
6357
6358
6359
6360
6361
6362
6363
6364
6365
6366
6367
6368
6369
6370
6371
6372
6373
6374
6375
6376
6377
6378
6379
6380
6381
6382
6383
6384
6385
6386
6387
6388
6389
6390
6391
6392
6393
6394
6395
6396
6397
6398
6399
6400
6401
6402
6403
6404
6405
6406
6407
6408
6409
6410
6411
6412
6413
6414
6415
6416
6417
6418
6419
6420
6421
6422
6423
6424
6425
6426
6427
6428
6429
6430
6431
6432
6433
6434
6435
6436
6437
6438
6439
6440
6441
6442
6443
6444
6445
6446
6447
6448
6449
6450
6451
6452
6453
6454
6455
6456
6457
6458
6459
6460
6461
6462
6463
6464
6465
6466
6467
6468
6469
6470
6471
6472
6473
6474
6475
6476
6477
6478
6479
6480
6481
6482
6483
6484
6485
6486
6487
6488
6489
6490
6491
6492
6493
6494
6495
6496
6497
6498
6499
6500
6501
6502
6503
6504
6505
6506
6507
6508
6509
6510
6511
6512
6513
6514
6515
6516
6517
6518
6519
6520
6521
6522
6523
6524
6525
6526
6527
6528
6529
6530
6531
6532
6533
6534
6535
6536
6537
6538
6539
6540
6541
6542
6543
6544
6545
6546
6547
6548
6549
6550
6551
6552
6553
6554
6555
6556
6557
6558
6559
6560
6561
6562
6563
6564
6565
6566
6567
6568
6569
6570
6571
6572
6573
6574
6575
6576
6577
6578
6579
6580
6581
6582
6583
6584
6585
6586
6587
6588
6589
6590
6591
6592
6593
6594
6595
6596
6597
6598
6599
6600
6601
6602
6603
6604
6605
6606
6607
6608
6609
6610
6611
6612
6613
6614
6615
6616
6617
6618
6619
6620
6621
6622
6623
6624
6625
6626
6627
6628
6629
6630
6631
6632
6633
6634
6635
6636
6637
6638
6639
6640
6641
6642
6643
6644
6645
6646
6647
6648
6649
6650
6651
6652
6653
6654
6655
6656
6657
6658
6659
6660
6661
6662
6663
6664
6665
6666
6667
6668
6669
6670
6671
6672
6673
6674
6675
6676
6677
6678
6679
6680
6681
6682
6683
6684
6685
6686
6687
6688
6689
6690
6691
6692
6693
6694
6695
6696
6697
6699
6700
6701
6702
6703
6704
6705
6706
6707
6708
6709
6710
6711
6712
6713
6714
6715
6716
6717
6718
6719
6720
6721
6722
6723
6725
6726
6727
6728
6729
6730
6731
6732
6733
6734
6735
6736
6737
6738
6739
6740
6741
6742
6743
6744
6745
6746
6747
6748
6749
6750
6751
6752
6753
6754
6755
6757
6758
6759
6760
6761
6762
6763
6764
6765
6766
6767
6768
6769
6770
6771
6772
6773
6774
6775
6776
6777
6778
6779
6780
6781
6782
6783
6784
6785
6787
6788
6789
6790
6791
6792
6793
6794
6795
6796
6797
6798
6799
6800
6801
6802
6803
6804
6805
6806
6808
6809
6810
6811
6812
6814
6815
6816
6817
6818
6819
6820
6821
6822
6823
6824
6825
6826
6827
6828
6829
6830
6831
6832
6833
6834
6835
6836
6837
6838
6839
6841
6842
6843
6844
6845
6847
6848
6849
6850
6851
6852
6853
6854
6855
6857
6858
6859
6860
6861
6863
6864
6865
6866
6867
6868
6869
6870
6871
6872
6873
6875
6877
6878
6879
6880
6881
6882
6883
6884
6885
6886
6887
6888
6891
6892
6894
6898
6901
6902
6903
6905
6906
6909
6910
6913
6915
6916
6917
6919
6920
6922
6923
6924
6926
6928
6929
6930
6934
6936
6939
6941
6943
9029
9030
9046
9055
9061
9063
9072
9073
9078
9107
9109
9118
9140
9142
9158
9166
9179
9180
9188
9190
9201
9202
9203
9206
9207
9210
9212
9213
9217
9219
9222
9231
9244
9247
9257
9260
9273
9280
9283
9284
9286
9289
9290
9303
9306
9309
9310
9313
9317
9319
9320
9321
9332
9336
9337
9342
9344
9345
9347
9350
9353
9359
9364
9366
9367
9372
9375
9377
9381
9384
9385
9387
9389
9390
9395
9396
9397
9398
9399
9400
9401
9404
9405
9406
9408
9414
9416
9417
9418
9419
9420
9421
9422
9423
9424
9425
9426
9427
9428
9429
9430
9431
9432
9433
9434
9435
9436
9437
9438
9439
9440
9442
9443
9444
9445
9447
9448
9450
9451
9452
9453
9454
9455
9456
9457
9458
9459
9460
9461
9462
9463
9464
9465
9466
9467
9468
9469
9470
9471
9472
9473
9474
9475
9476
9477
9478
9479
9480
9481
9483
9485
9488
9489
9491
9492
9493
9495
9496
9497
9498
9499
9500
9501
9502
9504
9505
9506
9507
9508
9509
9510
9511
9512
9513
9514
9515
9516
9517
9518
9519
9521
9522
9523
9526
9527
9528
9529
9530
9531
9532
9534
9536
9539
9540
9542
9543
9544
9545
9548
9549
9551
9552
9553
9554
9555
9556
9558
9559
9560
9561
9562
9563
9564
9565
9566
9567
9568
9569
9570
9571
9572
9575
9577
9579
9580
9581
9582
9585
9586
9587
9588
9589
9590
9591
9592
9594
9595
9596
9597
9598
9600
9601
9602
9603
9604
9605
9606
9607
9609
9610
9611
9614
9616
9617
9618
9619
9620
9621
9622
9623
9626
9627
9628
9630
9631
9632
9634
9635
9637
9638
9639
9640
9641
9642
9644
9645
9647
9649
9650
9651
9652
9653
9654
9655
9656
9658
9660
9661
9663
9664
9665
9666
9667
9668
9669
9670
9671
9672
9673
9674
9675
9676
9677
9678
9679
9680
9681
9682
9683
9684
9685
9686
9687
9688
9689
9690
9691
9692
9693
9694
9695
9696
9697
9698
9699
9700
9701
9702
9703
9704
9705
9706
9707
9708
9709
9710
9711
9712
9713
9714
9715
9716
9717
9718
9719
9720
9721
9722
9723
9724
9725
9726
9727
9728
9729
9730
9731
9732
9733
9734
9735
9736
9737
9738
9739
9740
9741
9742
9743
9744
9745
9746
9747
9748
9749
9750
9751
9752
9753
9754
9755
9756
9757
9758
9759
9760
9761
9762
9763
9764
9765
9766
9767
9768
9769
9770
9771
9772
9773
9774
9775
9776
9777
9778
9779
9780
9781
9782
9783
9784
9785
9786
9787
9788
9789
9790
9791
9792
9793
9794
9795
9796
9797
9798
9799
9800
9801
9802
9803
9804
9805
9806
9807
9808
9809
9810
9811
9812
9813
9814
9815
9816
9817
9818
9819
9820
9821
9822
9823
9824
9825
9826
9827
9828
9829
9830
9831
9832
9833
9834
9835
9836
9837
9838
9839
9840
9841
9842
9843
9844
9845
9846
9847
9848
9849
9850
9851
9852
9853
9854
9855
9856
9857
9858
9859
9860
9861
9862
9863
9864
9865
9866
9867
9868
9869
9870
9871
9872
9873
9874
9875
9876
9877
9878
9879
9880
9881
9882
9883
9884
9885
9886
9887
9888
9889
9890
9891
9892
9893
9894
9895
9896
9897
9898
9899
9900
9901
9902
9903
9904
9905
9906
9907
9908
9909
9910
9911
9912
9913
9914
9915
9916
9917
9918
9919
9920
9921
9922
9923
9924
9925
9926
9927
9928
9929
9930
9931
9932
9933
9934
9935
9936
9937
9938
9939
9940
9941
9942
9943
9944
9945
9946
9947
9948
9949
9950
9951
9952
9953
9954
9955
9956
9957
9958
9959
9960
9961
9962
9963
9964
9965
9966
9967
9968
9969
9970
9971
9972
9973
9974
9975
9976
9977
9978
9979
9980
9981
9982
9983
9984
9985
9986
9987
9988
9989
9990
9991
9992
9993
9994
9995
9996
9997
9998
9999
